^D:\C PRACTICE\DROPBOX\CURL2\DEBUG\BASE64.OBJ|D:\C PRACTICE\DROPBOX\CURL2\DEBUG\CHARSETCONVERSION.OBJ|D:\C PRACTICE\DROPBOX\CURL2\DEBUG\CURLING.OBJ
D:\C PRACTICE\DROPBOX\DEBUG\CURL2.EXE
D:\C PRACTICE\DROPBOX\CURL2\DEBUG\CURL2.EXE.INTERMEDIATE.MANIFEST
D:\C PRACTICE\DROPBOX\DEBUG\CURL2.PDB
