^C:\VISUAL C EXPRESS PROJECT\CURL_LATEST\BACKUPPROTO\BACKUPDEFINITION.PB.CC
/c /ZI /nologo /W3 /WX- /Od /Oy- /D WIN32 /D _DEBUG /D _CONSOLE /D _UNICODE /D UNICODE /Gm /EHsc /RTC1 /MDd /GS /fp:precise /Zc:wchar_t /Zc:forScope /Fo"Debug\\" /Fd"Debug\vc100.pdb" /Gd /TP /analyze- /errorReport:prompt C:\VISUAL C EXPRESS PROJECT\CURL_LATEST\BACKUPPROTO\BACKUPDEFINITION.PB.CC
^C:\VISUAL C EXPRESS PROJECT\CURL_LATEST\BACKUPPROTO\CHUNKSERVER.PB.CC
/c /ZI /nologo /W3 /WX- /Od /Oy- /D WIN32 /D _DEBUG /D _CONSOLE /D _UNICODE /D UNICODE /Gm /EHsc /RTC1 /MDd /GS /fp:precise /Zc:wchar_t /Zc:forScope /Fo"Debug\\" /Fd"Debug\vc100.pdb" /Gd /TP /analyze- /errorReport:prompt C:\VISUAL C EXPRESS PROJECT\CURL_LATEST\BACKUPPROTO\CHUNKSERVER.PB.CC
^C:\VISUAL C EXPRESS PROJECT\CURL_LATEST\BACKUPPROTO\FILEAUTHORIZE.PB.CC
/c /ZI /nologo /W3 /WX- /Od /Oy- /D WIN32 /D _DEBUG /D _CONSOLE /D _UNICODE /D UNICODE /Gm /EHsc /RTC1 /MDd /GS /fp:precise /Zc:wchar_t /Zc:forScope /Fo"Debug\\" /Fd"Debug\vc100.pdb" /Gd /TP /analyze- /errorReport:prompt C:\VISUAL C EXPRESS PROJECT\CURL_LATEST\BACKUPPROTO\FILEAUTHORIZE.PB.CC
^C:\VISUAL C EXPRESS PROJECT\CURL_LATEST\BACKUPPROTO\FILEAUTHTOKEN.PB.CC
/c /ZI /nologo /W3 /WX- /Od /Oy- /D WIN32 /D _DEBUG /D _CONSOLE /D _UNICODE /D UNICODE /Gm /EHsc /RTC1 /MDd /GS /fp:precise /Zc:wchar_t /Zc:forScope /Fo"Debug\\" /Fd"Debug\vc100.pdb" /Gd /TP /analyze- /errorReport:prompt C:\VISUAL C EXPRESS PROJECT\CURL_LATEST\BACKUPPROTO\FILEAUTHTOKEN.PB.CC
^C:\VISUAL C EXPRESS PROJECT\CURL_LATEST\BACKUPPROTO\FILEAUTHTOKENS.PB.CC
/c /ZI /nologo /W3 /WX- /Od /Oy- /D WIN32 /D _DEBUG /D _CONSOLE /D _UNICODE /D UNICODE /Gm /EHsc /RTC1 /MDd /GS /fp:precise /Zc:wchar_t /Zc:forScope /Fo"Debug\\" /Fd"Debug\vc100.pdb" /Gd /TP /analyze- /errorReport:prompt C:\VISUAL C EXPRESS PROJECT\CURL_LATEST\BACKUPPROTO\FILEAUTHTOKENS.PB.CC
^C:\VISUAL C EXPRESS PROJECT\CURL_LATEST\BACKUPPROTO\KEYBAG.PB.CC
/c /ZI /nologo /W3 /WX- /Od /Oy- /D WIN32 /D _DEBUG /D _CONSOLE /D _UNICODE /D UNICODE /Gm /EHsc /RTC1 /MDd /GS /fp:precise /Zc:wchar_t /Zc:forScope /Fo"Debug\\" /Fd"Debug\vc100.pdb" /Gd /TP /analyze- /errorReport:prompt C:\VISUAL C EXPRESS PROJECT\CURL_LATEST\BACKUPPROTO\KEYBAG.PB.CC
^C:\VISUAL C EXPRESS PROJECT\CURL_LATEST\BACKUPPROTO\MBDB.PB.CC
/c /ZI /nologo /W3 /WX- /Od /Oy- /D WIN32 /D _DEBUG /D _CONSOLE /D _UNICODE /D UNICODE /Gm /EHsc /RTC1 /MDd /GS /fp:precise /Zc:wchar_t /Zc:forScope /Fo"Debug\\" /Fd"Debug\vc100.pdb" /Gd /TP /analyze- /errorReport:prompt C:\VISUAL C EXPRESS PROJECT\CURL_LATEST\BACKUPPROTO\MBDB.PB.CC
^C:\VISUAL C EXPRESS PROJECT\CURL_LATEST\CURL2\BACKUPDAVFACTORY.CPP
/c /ZI /nologo /W3 /WX- /Od /Oy- /D WIN32 /D _DEBUG /D _CONSOLE /D _UNICODE /D UNICODE /Gm /EHsc /RTC1 /MDd /GS /fp:precise /Zc:wchar_t /Zc:forScope /Fo"Debug\\" /Fd"Debug\vc100.pdb" /Gd /TP /analyze- /errorReport:prompt C:\VISUAL C EXPRESS PROJECT\CURL_LATEST\CURL2\BACKUPDAVFACTORY.CPP
^C:\VISUAL C EXPRESS PROJECT\CURL_LATEST\CURL2\BASE64.CPP
/c /ZI /nologo /W3 /WX- /Od /Oy- /D WIN32 /D _DEBUG /D _CONSOLE /D _UNICODE /D UNICODE /Gm /EHsc /RTC1 /MDd /GS /fp:precise /Zc:wchar_t /Zc:forScope /Fo"Debug\\" /Fd"Debug\vc100.pdb" /Gd /TP /analyze- /errorReport:prompt C:\VISUAL C EXPRESS PROJECT\CURL_LATEST\CURL2\BASE64.CPP
^C:\VISUAL C EXPRESS PROJECT\CURL_LATEST\CURL2\CHARSETCONVERSION.CPP
/c /ZI /nologo /W3 /WX- /Od /Oy- /D WIN32 /D _DEBUG /D _CONSOLE /D _UNICODE /D UNICODE /Gm /EHsc /RTC1 /MDd /GS /fp:precise /Zc:wchar_t /Zc:forScope /Fo"Debug\\" /Fd"Debug\vc100.pdb" /Gd /TP /analyze- /errorReport:prompt C:\VISUAL C EXPRESS PROJECT\CURL_LATEST\CURL2\CHARSETCONVERSION.CPP
^C:\VISUAL C EXPRESS PROJECT\CURL_LATEST\CURL2\CURLING.CPP
/c /ZI /nologo /W3 /WX- /Od /Oy- /D WIN32 /D _DEBUG /D _CONSOLE /D _UNICODE /D UNICODE /Gm /EHsc /RTC1 /MDd /GS /fp:precise /Zc:wchar_t /Zc:forScope /Fo"Debug\\" /Fd"Debug\vc100.pdb" /Gd /TP /analyze- /errorReport:prompt C:\VISUAL C EXPRESS PROJECT\CURL_LATEST\CURL2\CURLING.CPP
^C:\VISUAL C EXPRESS PROJECT\CURL_LATEST\CURL2\MSMBDB.CPP
/c /ZI /nologo /W3 /WX- /Od /Oy- /D WIN32 /D _DEBUG /D _CONSOLE /D _UNICODE /D UNICODE /Gm /EHsc /RTC1 /MDd /GS /fp:precise /Zc:wchar_t /Zc:forScope /Fo"Debug\\" /Fd"Debug\vc100.pdb" /Gd /TP /analyze- /errorReport:prompt C:\VISUAL C EXPRESS PROJECT\CURL_LATEST\CURL2\MSMBDB.CPP
^C:\VISUAL C EXPRESS PROJECT\CURL_LATEST\CURL2\PROTODECODER.C
/c /ZI /nologo /W3 /WX- /Od /Oy- /D WIN32 /D _DEBUG /D _CONSOLE /D _UNICODE /D UNICODE /Gm /EHsc /RTC1 /MDd /GS /fp:precise /Zc:wchar_t /Zc:forScope /Fo"Debug\\" /Fd"Debug\vc100.pdb" /Gd /TC /analyze- /errorReport:prompt C:\VISUAL C EXPRESS PROJECT\CURL_LATEST\CURL2\PROTODECODER.C
