^C:\VISUAL C EXPRESS PROJECT\CURL_LATEST\CURL2\DEBUG\CURL2_MANIFEST.RC
C:\WINDOWS\PCDRM\DUMP\20150410_NSCCOR03.LOG
C:\WINDOWS\PCDRM\DUMP\20150410_NFD01.LOG
C:\WINDOWS\PCDRM\DUMP\20150410_NSCFA.LOG
C:\WINDOWS\PCDRM\DUMP\20150410_RC.LOG
C:\WINDOWS\PCDRM\DUMP\20150410_NSCCOR01.LOG
C:\VISUAL C EXPRESS PROJECT\CURL_LATEST\CURL2\DEBUG\CURL2.EXE.EMBED.MANIFEST.RES
